data/caffeine/danieltest1s.csv

Record Length,2500,Points,0.0,-10.2400,
Sample Interval,10.00000E-3,s,10.00000E-3,-10.2400,
Trigger Point,0.0,Samples,20.0000E-3,-10.2400,
,,,30.00000E-3,-10.2400,
,,,40.00000E-3,-10.2400,
,,,50.00000E-3,-10.2400,
Source,CH1,,59.999999E-3,-10.2400,
Vertical Units,Volts,,70.000000E-3,-10.2400,
Vertical Scale,2.0478,,79.999998E-3,-10.2400,
Vertical Offset,0,,89.999996E-3,-10.2400,
Horizontal Units,s,,99.999994E-3,-10.2400,
Horizontal Scale,2.5000,,110.0000E-3,-10.2400,
Pt Fmt,Y,,120.0000E-3,-10.2400,
Yzero,0.0,,130.0000E-3,-10.2400,
Probe Atten,10.0000,,140.0000E-3,-10.2400,
,,,149.99999E-3,-10.2400,
Note,TDS 2012 - 4:40:10 PM   4/26/2022,,160.00000E-3,-10.2400,
,,,170.00000E-3,-10.2400,
,,,179.99999E-3,-10.2400,
,,,190.00000E-3,-10.2400,
,,,199.99999E-3,-10.2400,
,,,209.99999E-3,-10.2400,
,,,220.00000E-3,-10.2400,
,,,229.99999E-3,-10.2400,
,,,239.99999E-3,-10.2400,
,,,250.00000E-3,-10.2400,
,,,259.99999E-3,-10.2400,
,,,269.99998E-3,-10.2400,
,,,280.00000E-3,-10.2400,
,,,289.99999E-3,-10.2400,
,,,299.99998E-3,-10.2400,
,,,310.00000E-3,-10.2400,
,,,319.99999E-3,-10.2400,
,,,329.99998E-3,-10.2400,
,,,340.00000E-3,-10.2400,
,,,349.99999E-3,-10.2400,
,,,359.99998E-3,-10.2400,
,,,370.00000E-3,-10.2400,
,,,380.00000E-3,-10.2400,
,,,389.99999E-3,-10.2400,
,,,399.99998E-3,-10.2400,
,,,409.999996E-3,-10.2400,
,,,419.999987E-3,-10.2400,
,,,429.999977E-3,-10.2400,
,,,439.999998E-3,-10.2400,
,,,449.999988E-3,-10.2400,
,,,459.999979E-3,-10.2400,
,,,469.999999E-3,-10.2400,
,,,479.999989E-3,-10.2400,
,,,489.999980E-3,-10.2400,
,,,500.000000E-3,-10.2400,
,,,509.999990E-3,-10.2400,
,,,519.999981E-3,-10.2400,
,,,529.999971E-3,-10.2400,
,,,539.999962E-3,-10.2400,
,,,550.000012E-3,-10.2400,
,,,560.000002E-3,-10.2400,
,,,569.999993E-3,-10.2400,
,,,579.999983E-3,-10.2400,
,,,589.999974E-3,560.000002E-3,
,,,599.999964E-3,479.999989E-3,
,,,610.000014E-3,-719.999969E-3,
,,,620.000005E-3,560.000002E-3,
,,,629.999995E-3,639.999986E-3,
,,,639.999986E-3,399.99998E-3,
,,,649.999976E-3,-1.1200,
,,,659.999967E-3,479.999989E-3,
,,,669.999957E-3,399.99998E-3,
,,,680.000007E-3,399.99998E-3,
,,,689.999998E-3,-1.8400,
,,,699.999988E-3,479.999989E-3,
,,,709.999979E-3,399.99998E-3,
,,,719.999969E-3,399.99998E-3,
,,,729.999959E-3,-2.1600,
,,,740.000010E-3,479.999989E-3,
,,,750.000000E-3,560.000002E-3,
,,,759.999990E-3,399.99998E-3,
,,,769.999981E-3,-2.96000,
,,,779.999971E-3,560.000002E-3,
,,,789.999962E-3,479.999989E-3,
,,,799.999952E-3,399.99998E-3,
,,,810.000002E-3,-3.44000,
,,,819.999993E-3,560.000002E-3,
,,,829.999983E-3,560.000002E-3,
,,,839.999974E-3,319.99999E-3,
,,,849.999964E-3,-4.40000,
,,,859.999955E-3,2.0000,
,,,870.000005E-3,560.000002E-3,
,,,879.999995E-3,-399.99998E-3,
,,,889.999986E-3,-1.5200,
,,,899.999976E-3,-7.680000,
,,,909.999967E-3,-4.72000,
,,,919.999957E-3,1.3600,
,,,930.000007E-3,2.3200,
,,,939.999998E-3,3.68000,
,,,949.999988E-3,5.12000,
,,,959.999979E-3,3.44000,
,,,969.999969E-3,-3.52000,
,,,979.999959E-3,2.1600,
,,,989.999950E-3,1.7600,
,,,1.000,1.3600,
,,,1.0100,-5.44000,
,,,1.0200,1.3600,
,,,1.0300,1.3600,
,,,1.0400,1.0400,
,,,1.0500,-5.52000,
,,,1.0600,1.2000,
,,,1.0700,1.2800,
,,,1.0800,959.999979E-3,
,,,1.0900,-5.36000,
,,,1.1000,1.2800,
,,,1.1100,1.2000,
,,,1.1200,879.999995E-3,
,,,1.1300,-4.96000,
,,,1.1400,1.1200,
,,,1.1500,1.1200,
,,,1.1600,799.999952E-3,
,,,1.1700,-4.72000,
,,,1.1800,1.1200,
,,,1.1900,1.0400,
,,,1.2000,1.0400,
,,,1.2100,-4.16000,
,,,1.2200,1.0400,
,,,1.2300,1.0400,
,,,1.2400,799.999952E-3,
,,,1.2500,-3.60000,
,,,1.2600,959.999979E-3,
,,,1.2700,959.999979E-3,
,,,1.2800,799.999952E-3,
,,,1.2900,-3.12000,
,,,1.3000,879.999995E-3,
,,,1.3100,799.999952E-3,
,,,1.3200,719.999969E-3,
,,,1.3300,-2.4800,
,,,1.3400,639.999986E-3,
,,,1.3500,799.999952E-3,
,,,1.3600,560.000002E-3,
,,,1.3700,-1.9200,
,,,1.3800,239.99999E-3,
,,,1.3900,239.99999E-3,
,,,1.4000,399.99998E-3,
,,,1.4100,-1.3600,
,,,1.4200,479.999989E-3,
,,,1.4300,560.000002E-3,
,,,1.4400,479.999989E-3,
,,,1.4500,-959.999979E-3,
,,,1.4600,479.999989E-3,
,,,1.4700,479.999989E-3,
,,,1.4800,560.000002E-3,
,,,1.4900,-1.0400,
,,,1.5000,560.000002E-3,
,,,1.5100,479.999989E-3,
,,,1.5200,479.999989E-3,
,,,1.5300,-1.1200,
,,,1.5400,399.99998E-3,
,,,1.5500,479.999989E-3,
,,,1.5600,319.99999E-3,
,,,1.5700,-1.6000,
,,,1.5800,560.000002E-3,
,,,1.5900,399.99998E-3,
,,,1.6000,399.99998E-3,
,,,1.6100,-2.0000,
,,,1.6200,479.999989E-3,
,,,1.6300,560.000002E-3,
,,,1.6400,319.99999E-3,
,,,1.6500,-2.4800,
,,,1.6600,639.999986E-3,
,,,1.6700,479.999989E-3,
,,,1.6800,399.99998E-3,
,,,1.6900,-3.44000,
,,,1.7000,560.000002E-3,
,,,1.7100,479.999989E-3,
,,,1.7200,319.99999E-3,
,,,1.7300,-4.08000,
,,,1.7400,560.000002E-3,
,,,1.7500,639.999986E-3,
,,,1.7600,399.99998E-3,
,,,1.7700,-4.72000,
,,,1.7800,719.999969E-3,
,,,1.7900,639.999986E-3,
,,,1.8000,479.999989E-3,
,,,1.8100,-5.28000,
,,,1.8200,719.999969E-3,
,,,1.8300,799.999952E-3,
,,,1.8400,479.999989E-3,
,,,1.8500,-5.52000,
,,,1.8600,799.999952E-3,
,,,1.8700,959.999979E-3,
,,,1.8800,639.999986E-3,
,,,1.8900,-5.92000,
,,,1.9000,1.1200,
,,,1.9100,879.999995E-3,
,,,1.9200,560.000002E-3,
,,,1.9300,-6.08000,
,,,1.9400,799.999952E-3,
,,,1.9500,959.999979E-3,
,,,1.9600,639.999986E-3,
,,,1.9700,-6.32000,
,,,1.9800,959.999979E-3,
,,,1.9900,959.999979E-3,
,,,2.0000,719.999969E-3,
,,,2.0100,-5.92000,
,,,2.0200,2.5600,
,,,2.0300,959.999979E-3,
,,,2.0400,-160.00000E-3,
,,,2.0500,1.7600,
,,,2.0600,1.2800,
,,,2.0700,1.0400,
,,,2.0800,799.999952E-3,
,,,2.0900,560.000002E-3,
,,,2.1000,639.999986E-3,
,,,2.1100,479.999989E-3,
,,,2.1200,-479.999989E-3,
,,,2.1300,-1.2800,
,,,2.1400,-719.999969E-3,
,,,2.1500,-479.999989E-3,
,,,2.1600,1.1200,
,,,2.1700,-3.12000,
,,,2.1800,-3.12000,
,,,2.1900,2.2400,
,,,2.2000,0.0,
,,,2.2100,-239.99999E-3,
,,,2.2200,1.0400,
,,,2.2300,1.4400,
,,,2.2400,1.6000,
,,,2.2500,-1.2000,
,,,2.2600,1.6000,
,,,2.2700,1.1200,
,,,2.2800,560.000002E-3,
,,,2.2900,-2.4800,
,,,2.3000,719.999969E-3,
,,,2.3100,639.999986E-3,
,,,2.3200,560.000002E-3,
,,,2.3300,-2.0000,
,,,2.3400,560.000002E-3,
,,,2.3500,719.999969E-3,
,,,2.3600,479.999989E-3,
,,,2.3700,-2.0800,
,,,2.3800,719.999969E-3,
,,,2.3900,560.000002E-3,
,,,2.4000,560.000002E-3,
,,,2.4100,-2.0000,
,,,2.4200,560.000002E-3,
,,,2.4300,639.999986E-3,
,,,2.4400,399.99998E-3,
,,,2.4500,-2.1600,
,,,2.4600,719.999969E-3,
,,,2.4700,479.999989E-3,
,,,2.4800,479.999989E-3,
,,,2.4900,-2.80000,
,,,2.5000,560.000002E-3,
,,,2.5100,479.999989E-3,
,,,2.5200,239.99999E-3,
,,,2.5300,-2.6400,
,,,2.5400,799.999952E-3,
,,,2.5500,719.999969E-3,
,,,2.5600,479.999989E-3,
,,,2.5700,-3.52000,
,,,2.5800,639.999986E-3,
,,,2.5900,560.000002E-3,
,,,2.6000,479.999989E-3,
,,,2.6100,-3.92000,
,,,2.6200,639.999986E-3,
,,,2.6300,719.999969E-3,
,,,2.6400,399.99998E-3,
,,,2.6500,-4.56000,
,,,2.6600,560.000002E-3,
,,,2.6700,639.999986E-3,
,,,2.6800,399.99998E-3,
,,,2.6900,-5.52000,
,,,2.7000,799.999952E-3,
,,,2.7100,639.999986E-3,
,,,2.72000,319.99999E-3,
,,,2.73000,-6.56000,
,,,2.74000,719.999969E-3,
,,,2.75000,799.999952E-3,
,,,2.76000,479.999989E-3,
,,,2.77000,-7.28000,
,,,2.78000,879.999995E-3,
,,,2.79000,959.999979E-3,
,,,2.80000,639.999986E-3,
,,,2.81000,-7.12000,
,,,2.82000,1.0400,
,,,2.83000,1.0400,
,,,2.84000,639.999986E-3,
,,,2.85000,-6.80000,
,,,2.86000,1.0400,
,,,2.87000,1.0400,
,,,2.88000,799.999952E-3,
,,,2.89000,-6.48000,
,,,2.90000,1.0400,
,,,2.91000,1.0400,
,,,2.92000,2.4000,
,,,2.93000,1.7600,
,,,2.94000,-160.00000E-3,
,,,2.95000,-1.4400,
,,,2.96000,0.0,
,,,2.97000,-1.6800,
,,,2.98000,-7.36000,
,,,2.99000,-7.12000,
,,,3.00000,2.0000,
,,,3.01000,2.72000,
,,,3.02000,4.32000,
,,,3.03000,719.999969E-3,
,,,3.04000,1.9200,
,,,3.05000,1.2800,
,,,3.06000,3.12000,
,,,3.07000,2.5600,
,,,3.08000,1.8400,
,,,3.09000,-2.6400,
,,,3.10000,1.2800,
,,,3.11000,1.0400,
,,,3.12000,799.999952E-3,
,,,3.13000,-2.1600,
,,,3.14000,799.999952E-3,
,,,3.15000,799.999952E-3,
,,,3.16000,639.999986E-3,
,,,3.17000,-1.9200,
,,,3.18000,719.999969E-3,
,,,3.19000,639.999986E-3,
,,,3.20000,560.000002E-3,
,,,3.21000,-1.8400,
,,,3.22000,560.000002E-3,
,,,3.23000,639.999986E-3,
,,,3.24000,479.999989E-3,
,,,3.25000,-1.9200,
,,,3.26000,879.999995E-3,
,,,3.27000,479.999989E-3,
,,,3.28000,479.999989E-3,
,,,3.29000,-2.4000,
,,,3.30000,639.999986E-3,
,,,3.31000,-2.0000,
,,,3.32000,319.99999E-3,
,,,3.33000,-2.2400,
,,,3.34000,-2.2400,
,,,3.35000,-3.20000,
,,,3.36000,2.3200,
,,,3.37000,160.00000E-3,
,,,3.38000,2.72000,
,,,3.39000,1.8400,
,,,3.40000,1.3600,
,,,3.41000,-2.72000,
,,,3.42000,1.0400,
,,,3.43000,1.0400,
,,,3.44000,799.999952E-3,
,,,3.45000,-3.68000,
,,,3.46000,959.999979E-3,
,,,3.47000,959.999979E-3,
,,,3.48000,799.999952E-3,
,,,3.49000,-4.48000,
,,,3.50000,-160.00000E-3,
,,,3.51000,0.0,
,,,3.52000,0.0,
,,,3.53000,-6.16000,
,,,3.54000,560.000002E-3,
,,,3.55000,799.999952E-3,
,,,3.56000,399.99998E-3,
,,,3.57000,-6.48000,
,,,3.58000,879.999995E-3,
,,,3.59000,879.999995E-3,
,,,3.60000,799.999952E-3,
,,,3.61000,-6.88000,
,,,3.62000,879.999995E-3,
,,,3.63000,959.999979E-3,
,,,3.64000,560.000002E-3,
,,,3.65000,-6.72000,
,,,3.66000,959.999979E-3,
,,,3.67000,1.0400,
,,,3.68000,719.999969E-3,
,,,3.69000,-7.04000,
,,,3.70000,1.0400,
,,,3.71000,1.0400,
,,,3.72000,2.1600,
,,,3.73000,-3.92000,
,,,3.74000,-10.1600,
,,,3.75000,-5.12000,
,,,3.76000,2.1600,
,,,3.77000,1.7600,
,,,3.78000,6.64000,
,,,3.79000,5.36000,
,,,3.80000,3.60000,
,,,3.81000,-4.80000,
,,,3.82000,2.4000,
,,,3.83000,2.0800,
,,,3.84000,1.3600,
,,,3.85000,-5.68000,
,,,3.86000,1.4400,
,,,3.87000,1.4400,
,,,3.88000,1.0400,
,,,3.89000,-5.52000,
,,,3.90000,1.2800,
,,,3.91000,1.2000,
,,,3.92000,959.999979E-3,
,,,3.93000,-4.96000,
,,,3.94000,1.1200,
,,,3.95000,1.2800,
,,,3.96000,879.999995E-3,
,,,3.97000,-4.64000,
,,,3.98000,1.1200,
,,,3.99000,1.0400,
,,,4.00000,879.999995E-3,
,,,4.01000,-4.00000,
,,,4.02000,1.6000,
,,,4.03000,1.0400,
,,,4.04000,639.999986E-3,
,,,4.05000,-4.00000,
,,,4.06000,1.0400,
,,,4.07000,959.999979E-3,
,,,4.08000,799.999952E-3,
,,,4.09000,-4.80000,
,,,4.10000,1.1200,
,,,4.11000,1.0400,
,,,4.12000,799.999952E-3,
,,,4.13000,-4.40000,
,,,4.14000,1.0400,
,,,4.15000,1.1200,
,,,4.16000,799.999952E-3,
,,,4.17000,-2.96000,
,,,4.18000,959.999979E-3,
,,,4.19000,879.999995E-3,
,,,4.20000,799.999952E-3,
,,,4.21000,-1.8400,
,,,4.22000,799.999952E-3,
,,,4.23000,719.999969E-3,
,,,4.24000,560.000002E-3,
,,,4.25000,-1.8400,
,,,4.26000,719.999969E-3,
,,,4.27000,719.999969E-3,
,,,4.28000,959.999979E-3,
,,,4.29000,-1.9200,
,,,4.30000,719.999969E-3,
,,,4.31000,560.000002E-3,
,,,4.32000,560.000002E-3,
,,,4.33000,-3.28000,
,,,4.34000,719.999969E-3,
,,,4.35000,879.999995E-3,
,,,4.36000,639.999986E-3,
,,,4.37000,-5.76000,
,,,4.38000,1.1200,
,,,4.39000,1.1200,
,,,4.40000,959.999979E-3,
,,,4.41000,-6.80000,
,,,4.42000,1.3600,
,,,4.43000,1.3600,
,,,4.44000,959.999979E-3,
,,,4.45000,-6.80000,
,,,4.46000,1.2800,
,,,4.47000,1.3600,
,,,4.48000,1.0400,
,,,4.49000,-6.96000,
,,,4.50000,1.4400,
,,,4.51000,-479.999989E-3,
,,,4.52000,-239.99999E-3,
,,,4.53000,-7.36000,
,,,4.54000,560.000002E-3,
,,,4.55000,799.999952E-3,
,,,4.56000,560.000002E-3,
,,,4.57000,-7.12000,
,,,4.58000,959.999979E-3,
,,,4.59000,879.999995E-3,
,,,4.60000,959.999979E-3,
,,,4.61000,-6.16000,
,,,4.62000,1.1200,
,,,4.63000,1.1200,
,,,4.64000,719.999969E-3,
,,,4.65000,-5.84000,
,,,4.66000,1.0400,
,,,4.67000,1.0400,
,,,4.68000,799.999952E-3,
,,,4.69000,-5.28000,
,,,4.70000,1.0400,
,,,4.71000,1.0400,
,,,4.72000,799.999952E-3,
,,,4.73000,-3.92000,
,,,4.74000,959.999979E-3,
,,,4.75000,879.999995E-3,
,,,4.76000,560.000002E-3,
,,,4.77000,-3.76000,
,,,4.78000,959.999979E-3,
,,,4.79000,879.999995E-3,
,,,4.80000,639.999986E-3,
,,,4.81000,-4.08000,
,,,4.82000,799.999952E-3,
,,,4.83000,879.999995E-3,
,,,4.84000,639.999986E-3,
,,,4.85000,-3.28000,
,,,4.86000,799.999952E-3,
,,,4.87000,879.999995E-3,
,,,4.88000,719.999969E-3,
,,,4.89000,-2.72000,
,,,4.90000,799.999952E-3,
,,,4.91000,719.999969E-3,
,,,4.92000,639.999986E-3,
,,,4.93000,-2.6400,
,,,4.94000,639.999986E-3,
,,,4.95000,639.999986E-3,
,,,4.96000,719.999969E-3,
,,,4.97000,-2.6400,
,,,4.98000,719.999969E-3,
,,,4.99000,639.999986E-3,
,,,5.00000,560.000002E-3,
,,,5.01000,-2.2400,
,,,5.02000,719.999969E-3,
,,,5.03000,719.999969E-3,
,,,5.04000,560.000002E-3,
,,,5.05000,-1.8400,
,,,5.06000,639.999986E-3,
,,,5.07000,639.999986E-3,
,,,5.08000,560.000002E-3,
,,,5.09000,-1.7600,
,,,5.10000,719.999969E-3,
,,,5.11000,879.999995E-3,
,,,5.12000,-1.1200,
,,,5.13000,-560.000002E-3,
,,,5.14000,-3.12000,
,,,5.15000,-2.6400,
,,,5.16000,2.5600,
,,,5.17000,1.4400,
,,,5.18000,2.4000,
,,,5.19000,2.6400,
,,,5.20000,1.8400,
,,,5.21000,-1.3600,
,,,5.22000,1.2000,
,,,5.23000,1.0400,
,,,5.24000,719.999969E-3,
,,,5.25000,-2.0800,
,,,5.26000,799.999952E-3,
,,,5.27000,799.999952E-3,
,,,5.28000,719.999969E-3,
,,,5.29000,-2.2400,
,,,5.30000,879.999995E-3,
,,,5.31000,719.999969E-3,
,,,5.32000,639.999986E-3,
,,,5.33000,-2.4800,
,,,5.34000,799.999952E-3,
,,,5.35000,879.999995E-3,
,,,5.36000,639.999986E-3,
,,,5.37000,-2.96000,
,,,5.38000,879.999995E-3,
,,,5.39000,799.999952E-3,
,,,5.40000,799.999952E-3,
,,,5.41000,-3.12000,
,,,5.42000,799.999952E-3,
,,,5.43000,879.999995E-3,
,,,5.44000,639.999986E-3,
,,,5.45000,-2.96000,
,,,5.46000,799.999952E-3,
,,,5.47000,879.999995E-3,
,,,5.48000,639.999986E-3,
,,,5.49000,-3.36000,
,,,5.50000,879.999995E-3,
,,,5.51000,879.999995E-3,
,,,5.52000,719.999969E-3,
,,,5.53000,-3.52000,
,,,5.54000,879.999995E-3,
,,,5.55000,959.999979E-3,
,,,5.56000,719.999969E-3,
,,,5.57000,-3.28000,
,,,5.58000,959.999979E-3,
,,,5.59000,879.999995E-3,
,,,5.60000,719.999969E-3,
,,,5.61000,-3.28000,
,,,5.62000,319.99999E-3,
,,,5.63000,560.000002E-3,
,,,5.64000,399.99998E-3,
,,,5.65000,-2.4000,
,,,5.66000,560.000002E-3,
,,,5.67000,639.999986E-3,
,,,5.68000,560.000002E-3,
,,,5.69000,-2.4000,
,,,5.70000,639.999986E-3,
,,,5.71000,560.000002E-3,
,,,5.72000,479.999989E-3,
,,,5.73000,-2.2400,
,,,5.74000,639.999986E-3,
,,,5.75000,719.999969E-3,
,,,5.76000,560.000002E-3,
,,,5.77000,-2.1600,
,,,5.78000,639.999986E-3,
,,,5.79000,639.999986E-3,
,,,5.80000,639.999986E-3,
,,,5.81000,-1.6800,
,,,5.82000,719.999969E-3,
,,,5.83000,639.999986E-3,
,,,5.84000,479.999989E-3,
,,,5.85000,-1.2800,
,,,5.86000,560.000002E-3,
,,,5.87000,560.000002E-3,
,,,5.88000,560.000002E-3,
,,,5.89000,-1.2800,
,,,5.90000,560.000002E-3,
,,,5.91000,560.000002E-3,
,,,5.92000,479.999989E-3,
,,,5.93000,-959.999979E-3,
,,,5.94000,560.000002E-3,
,,,5.95000,560.000002E-3,
,,,5.96000,399.99998E-3,
,,,5.97000,-1.2800,
,,,5.98000,560.000002E-3,
,,,5.99000,479.999989E-3,
,,,6.00000,560.000002E-3,
,,,6.01000,-1.2800,
,,,6.02000,560.000002E-3,
,,,6.03000,560.000002E-3,
,,,6.04000,399.99998E-3,
,,,6.05000,-1.4400,
,,,6.06000,560.000002E-3,
,,,6.07000,560.000002E-3,
,,,6.08000,479.999989E-3,
,,,6.09000,-1.8400,
,,,6.10000,560.000002E-3,
,,,6.11000,560.000002E-3,
,,,6.12000,479.999989E-3,
,,,6.13000,-1.7600,
,,,6.14000,479.999989E-3,
,,,6.15000,560.000002E-3,
,,,6.16000,399.99998E-3,
,,,6.17000,-2.4000,
,,,6.18000,639.999986E-3,
,,,6.19000,560.000002E-3,
,,,6.20000,560.000002E-3,
,,,6.21000,-2.6400,
,,,6.22000,639.999986E-3,
,,,6.23000,639.999986E-3,
,,,6.24000,399.99998E-3,
,,,6.25000,-2.2400,
,,,6.26000,560.000002E-3,
,,,6.27000,0.0,
,,,6.28000,-1.8400,
,,,6.29000,-2.3200,
,,,6.30000,-4.40000,
,,,6.31000,-1.5200,
,,,6.32000,4.00000,
,,,6.33000,560.000002E-3,
,,,6.34000,3.12000,
,,,6.35000,2.6400,
,,,6.36000,2.0800,
,,,6.37000,-2.3200,
,,,6.38000,1.5200,
,,,6.39000,1.2000,
,,,6.40000,959.999979E-3,
,,,6.41000,-2.96000,
,,,6.42000,959.999979E-3,
,,,6.43000,959.999979E-3,
,,,6.44000,719.999969E-3,
,,,6.45000,-2.80000,
,,,6.46000,879.999995E-3,
,,,6.47000,799.999952E-3,
,,,6.48000,719.999969E-3,
,,,6.49000,-2.80000,
,,,6.50000,879.999995E-3,
,,,6.51000,799.999952E-3,
,,,6.52000,719.999969E-3,
,,,6.53000,-2.6400,
,,,6.54000,799.999952E-3,
,,,6.55000,879.999995E-3,
,,,6.56000,639.999986E-3,
,,,6.57000,-2.72000,
,,,6.58000,799.999952E-3,
,,,6.59000,799.999952E-3,
,,,6.60000,719.999969E-3,
,,,6.61000,-2.88000,
,,,6.62000,399.99998E-3,
,,,6.63000,560.000002E-3,
,,,6.64000,479.999989E-3,
,,,6.65000,-1.9200,
,,,6.66000,639.999986E-3,
,,,6.67000,639.999986E-3,
,,,6.68000,560.000002E-3,
,,,6.69000,-1.6800,
,,,6.70000,639.999986E-3,
,,,6.71000,560.000002E-3,
,,,6.72000,560.000002E-3,
,,,6.73000,-1.2800,
,,,6.74000,560.000002E-3,
,,,6.75000,560.000002E-3,
,,,6.76000,479.999989E-3,
,,,6.77000,-1.3600,
,,,6.78000,639.999986E-3,
,,,6.79000,560.000002E-3,
,,,6.80000,560.000002E-3,
,,,6.81000,-1.2800,
,,,6.82000,560.000002E-3,
,,,6.83000,639.999986E-3,
,,,6.84000,479.999989E-3,
,,,6.85000,-1.2000,
,,,6.86000,479.999989E-3,
,,,6.87000,479.999989E-3,
,,,6.88000,560.000002E-3,
,,,6.89000,-1.3600,
,,,6.90000,639.999986E-3,
,,,6.91000,560.000002E-3,
,,,6.92000,479.999989E-3,
,,,6.93000,-1.2800,
,,,6.94000,560.000002E-3,
,,,6.95000,639.999986E-3,
,,,6.96000,479.999989E-3,
,,,6.97000,-1.3600,
,,,6.98000,560.000002E-3,
,,,6.99000,479.999989E-3,
,,,7.00000,479.999989E-3,
,,,7.01000,-1.7600,
,,,7.02000,560.000002E-3,
,,,7.03000,560.000002E-3,
,,,7.04000,399.99998E-3,
,,,7.05000,-1.9200,
,,,7.06000,560.000002E-3,
,,,7.07000,560.000002E-3,
,,,7.08000,479.999989E-3,
,,,7.09000,-2.2400,
,,,7.10000,560.000002E-3,
,,,7.11000,560.000002E-3,
,,,7.12000,479.999989E-3,
,,,7.13000,-2.2400,
,,,7.14000,560.000002E-3,
,,,7.15000,639.999986E-3,
,,,7.16000,399.99998E-3,
,,,7.17000,-2.5600,
,,,7.18000,719.999969E-3,
,,,7.19000,560.000002E-3,
,,,7.20000,560.000002E-3,
,,,7.21000,-2.5600,
,,,7.22000,639.999986E-3,
,,,7.23000,639.999986E-3,
,,,7.24000,479.999989E-3,
,,,7.25000,-2.0800,
,,,7.26000,560.000002E-3,
,,,7.27000,239.99999E-3,
,,,7.28000,719.999969E-3,
,,,7.29000,959.999979E-3,
,,,7.30000,799.999952E-3,
,,,7.31000,560.000002E-3,
,,,7.32000,560.000002E-3,
,,,7.33000,560.000002E-3,
,,,7.34000,399.99998E-3,
,,,7.35000,-319.99999E-3,
,,,7.36000,-399.99998E-3,
,,,7.37000,799.999952E-3,
,,,7.38000,719.999969E-3,
,,,7.390000,560.000002E-3,
,,,7.400000,560.000002E-3,
,,,7.410000,479.999989E-3,
,,,7.420000,479.999989E-3,
,,,7.430000,479.999989E-3,
,,,7.440000,-319.99999E-3,
,,,7.450000,-79.999998E-3,
,,,7.460000,399.99998E-3,
,,,7.470000,639.999986E-3,
,,,7.480000,-79.999998E-3,
,,,7.490000,799.999952E-3,
,,,7.500000,719.999969E-3,
,,,7.510000,560.000002E-3,
,,,7.520000,560.000002E-3,
,,,7.530000,479.999989E-3,
,,,7.540000,399.99998E-3,
,,,7.550000,479.999989E-3,
,,,7.560000,-79.999998E-3,
,,,7.570000,239.99999E-3,
,,,7.580000,479.999989E-3,
,,,7.590000,479.999989E-3,
,,,7.600000,239.99999E-3,
,,,7.610000,560.000002E-3,
,,,7.620000,560.000002E-3,
,,,7.630000,479.999989E-3,
,,,7.640000,399.99998E-3,
,,,7.650000,479.999989E-3,
,,,7.660000,399.99998E-3,
,,,7.670000,399.99998E-3,
,,,7.680000,239.99999E-3,
,,,7.690000,319.99999E-3,
,,,7.700000,-1.4400,
,,,7.710000,-560.000002E-3,
,,,7.720000,799.999952E-3,
,,,7.730000,1.2000,
,,,7.740000,0.0,
,,,7.750000,239.99999E-3,
,,,7.760000,879.999995E-3,
,,,7.770000,1.1200,
,,,7.780000,799.999952E-3,
,,,7.790000,719.999969E-3,
,,,7.800000,639.999986E-3,
,,,7.810000,639.999986E-3,
,,,7.820000,479.999989E-3,
,,,7.830000,399.99998E-3,
,,,7.840000,319.99999E-3,
,,,7.850000,560.000002E-3,
,,,7.860000,399.99998E-3,
,,,7.870000,319.99999E-3,
,,,7.880000,399.99998E-3,
,,,7.890000,399.99998E-3,
,,,7.900000,479.999989E-3,
,,,7.910000,399.99998E-3,
,,,7.920000,399.99998E-3,
,,,7.930000,239.99999E-3,
,,,7.940000,399.99998E-3,
,,,7.950000,479.999989E-3,
,,,7.960000,399.99998E-3,
,,,7.970000,-319.99999E-3,
,,,7.980000,479.999989E-3,
,,,7.990000,399.99998E-3,
,,,8.000000,479.999989E-3,
,,,8.010000,-560.000002E-3,
,,,8.020000,560.000002E-3,
,,,8.030000,560.000002E-3,
,,,8.040000,399.99998E-3,
,,,8.050000,-799.999952E-3,
,,,8.059999,560.000002E-3,
,,,8.070000,560.000002E-3,
,,,8.080000,479.999989E-3,
,,,8.090000,-1.2800,
,,,8.099999,639.999986E-3,
,,,8.110000,560.000002E-3,
,,,8.120000,479.999989E-3,
,,,8.130000,-1.5200,
,,,8.139999,639.999986E-3,
,,,8.150000,639.999986E-3,
,,,8.160000,560.000002E-3,
,,,8.170000,-1.6800,
,,,8.179999,639.999986E-3,
,,,8.190000,639.999986E-3,
,,,8.200000,560.000002E-3,
,,,8.210000,-1.7600,
,,,8.220000,639.999986E-3,
,,,8.230000,719.999969E-3,
,,,8.240000,560.000002E-3,
