data/control/maddietest2c.csv

Record Length,2500,Points,0.0,-1.0240,
Sample Interval,10.00000E-3,s,10.00000E-3,-1.0240,
Trigger Point,0.0,Samples,20.0000E-3,-1.0240,
,,,30.00000E-3,-1.0240,
,,,40.00000E-3,-1.0240,
,,,50.00000E-3,-1.0240,
Source,CH1,,59.999999E-3,-1.0240,
Vertical Units,Volts,,70.000000E-3,-1.0240,
Vertical Scale,204.78126E-3,,79.999998E-3,-1.0240,
Vertical Offset,0,,89.999996E-3,-1.0240,
Horizontal Units,s,,99.999994E-3,-1.0240,
Horizontal Scale,2.5000,,110.0000E-3,-1.0240,
Pt Fmt,Y,,120.0000E-3,-1.0240,
Yzero,0.0,,130.0000E-3,-1.0240,
Probe Atten,10.0000,,140.0000E-3,-1.0240,
,,,149.99999E-3,-1.0240,
Note,TDS 2012 - 3:19:36 PM   4/26/2022,,160.00000E-3,-1.0240,
,,,170.00000E-3,-1.0240,
,,,179.99999E-3,-1.0240,
,,,190.00000E-3,-1.0240,
,,,199.99999E-3,-1.0240,
,,,209.99999E-3,-1.0240,
,,,220.00000E-3,-1.0240,
,,,229.99999E-3,-1.0240,
,,,239.99999E-3,-1.0240,
,,,250.00000E-3,-1.0240,
,,,259.99999E-3,-1.0240,
,,,269.99998E-3,-1.0240,
,,,280.00000E-3,-1.0240,
,,,289.99999E-3,-1.0240,
,,,299.99998E-3,-1.0240,
,,,310.00000E-3,-1.0240,
,,,319.99999E-3,-1.0240,
,,,329.99998E-3,-1.0240,
,,,340.00000E-3,-1.0240,
,,,349.99999E-3,-1.0240,
,,,359.99998E-3,-1.0240,
,,,370.00000E-3,344.00001E-3,
,,,380.00000E-3,424.000025E-3,
,,,389.99999E-3,344.00001E-3,
,,,399.99998E-3,376.00002E-3,
,,,409.999996E-3,408.000022E-3,
,,,419.999987E-3,360.00001E-3,
,,,429.999977E-3,400.00001E-3,
,,,439.999998E-3,352.00003E-3,
,,,449.999988E-3,400.00001E-3,
,,,459.999979E-3,392.00002E-3,
,,,469.999999E-3,352.00003E-3,
,,,479.999989E-3,408.000022E-3,
,,,489.999980E-3,328.00001E-3,
,,,500.000000E-3,336.00003E-3,
,,,509.999990E-3,360.00001E-3,
,,,519.999981E-3,328.00001E-3,
,,,529.999971E-3,400.00001E-3,
,,,539.999962E-3,368.00003E-3,
,,,550.000012E-3,368.00003E-3,
,,,560.000002E-3,384.00000E-3,
,,,569.999993E-3,344.00001E-3,
,,,579.999983E-3,392.00002E-3,
,,,589.999974E-3,344.00001E-3,
,,,599.999964E-3,376.00002E-3,
,,,610.000014E-3,400.00001E-3,
,,,620.000005E-3,328.00001E-3,
,,,629.999995E-3,432.000011E-3,
,,,639.999986E-3,352.00003E-3,
,,,649.999976E-3,376.00002E-3,
,,,659.999967E-3,400.00001E-3,
,,,669.999957E-3,368.00003E-3,
,,,680.000007E-3,432.000011E-3,
,,,689.999998E-3,328.00001E-3,
,,,699.999988E-3,368.00003E-3,
,,,709.999979E-3,384.00000E-3,
,,,719.999969E-3,344.00001E-3,
,,,729.999959E-3,392.00002E-3,
,,,740.000010E-3,368.00003E-3,
,,,750.000000E-3,392.00002E-3,
,,,759.999990E-3,360.00001E-3,
,,,769.999981E-3,360.00001E-3,
,,,779.999971E-3,392.00002E-3,
,,,789.999962E-3,344.00001E-3,
,,,799.999952E-3,376.00002E-3,
,,,810.000002E-3,416.000009E-3,
,,,819.999993E-3,352.00003E-3,
,,,829.999983E-3,400.00001E-3,
,,,839.999974E-3,344.00001E-3,
,,,849.999964E-3,384.00000E-3,
,,,859.999955E-3,384.00000E-3,
,,,870.000005E-3,344.00001E-3,
,,,879.999995E-3,400.00001E-3,
,,,889.999986E-3,408.000022E-3,
,,,899.999976E-3,400.00001E-3,
,,,909.999967E-3,400.00001E-3,
,,,919.999957E-3,344.00001E-3,
,,,930.000007E-3,408.000022E-3,
,,,939.999998E-3,344.00001E-3,
,,,949.999988E-3,368.00003E-3,
,,,959.999979E-3,392.00002E-3,
,,,969.999969E-3,360.00001E-3,
,,,979.999959E-3,408.000022E-3,
,,,989.999950E-3,344.00001E-3,
,,,1.000,376.00002E-3,
,,,1.0100,416.000009E-3,
,,,1.0200,344.00001E-3,
,,,1.0300,416.000009E-3,
,,,1.0400,360.00001E-3,
,,,1.0500,400.00001E-3,
,,,1.0600,384.00000E-3,
,,,1.0700,328.00001E-3,
,,,1.0800,408.000022E-3,
,,,1.0900,336.00003E-3,
,,,1.1000,392.00002E-3,
,,,1.1100,376.00002E-3,
,,,1.1200,360.00001E-3,
,,,1.1300,416.000009E-3,
,,,1.1400,352.00003E-3,
,,,1.1500,376.00002E-3,
,,,1.1600,400.00001E-3,
,,,1.1700,344.00001E-3,
,,,1.1800,408.000022E-3,
,,,1.1900,368.00003E-3,
,,,1.2000,368.00003E-3,
,,,1.2100,376.00002E-3,
,,,1.2200,352.00003E-3,
,,,1.2300,424.000025E-3,
,,,1.2400,360.00001E-3,
,,,1.2500,424.000025E-3,
,,,1.2600,392.00002E-3,
,,,1.2700,336.00003E-3,
,,,1.2800,424.000025E-3,
,,,1.2900,280.00000E-3,
,,,1.3000,384.00000E-3,
,,,1.3100,400.00001E-3,
,,,1.3200,360.00001E-3,
,,,1.3300,408.000022E-3,
,,,1.3400,360.00001E-3,
,,,1.3500,360.00001E-3,
,,,1.3600,392.00002E-3,
,,,1.3700,360.00001E-3,
,,,1.3800,392.00002E-3,
,,,1.3900,360.00001E-3,
,,,1.4000,376.00002E-3,
,,,1.4100,376.00002E-3,
,,,1.4200,336.00003E-3,
,,,1.4300,376.00002E-3,
,,,1.4400,368.00003E-3,
,,,1.4500,384.00000E-3,
,,,1.4600,368.00003E-3,
,,,1.4700,336.00003E-3,
,,,1.4800,416.000009E-3,
,,,1.4900,352.00003E-3,
,,,1.5000,376.00002E-3,
,,,1.5100,400.00001E-3,
,,,1.5200,344.00001E-3,
,,,1.5300,408.000022E-3,
,,,1.5400,336.00003E-3,
,,,1.5500,368.00003E-3,
,,,1.5600,384.00000E-3,
,,,1.5700,336.00003E-3,
,,,1.5800,408.000022E-3,
,,,1.5900,368.00003E-3,
,,,1.6000,376.00002E-3,
,,,1.6100,384.00000E-3,
,,,1.6200,320.00002E-3,
,,,1.6300,408.000022E-3,
,,,1.6400,336.00003E-3,
,,,1.6500,368.00003E-3,
,,,1.6600,392.00002E-3,
,,,1.6700,336.00003E-3,
,,,1.6800,416.000009E-3,
,,,1.6900,368.00003E-3,
,,,1.7000,368.00003E-3,
,,,1.7100,360.00001E-3,
,,,1.7200,336.00003E-3,
,,,1.7300,392.00002E-3,
,,,1.7400,344.00001E-3,
,,,1.7500,360.00001E-3,
,,,1.7600,384.00000E-3,
,,,1.7700,352.00003E-3,
,,,1.7800,400.00001E-3,
,,,1.7900,360.00001E-3,
,,,1.8000,384.00000E-3,
,,,1.8100,416.000009E-3,
,,,1.8200,360.00001E-3,
,,,1.8300,416.000009E-3,
,,,1.8400,328.00001E-3,
,,,1.8500,360.00001E-3,
,,,1.8600,400.00001E-3,
,,,1.8700,344.00001E-3,
,,,1.8800,400.00001E-3,
,,,1.8900,376.00002E-3,
,,,1.9000,376.00002E-3,
,,,1.9100,360.00001E-3,
,,,1.9200,360.00001E-3,
,,,1.9300,392.00002E-3,
,,,1.9400,336.00003E-3,
,,,1.9500,368.00003E-3,
,,,1.9600,392.00002E-3,
,,,1.9700,352.00003E-3,
,,,1.9800,416.000009E-3,
,,,1.9900,360.00001E-3,
,,,2.0000,376.00002E-3,
,,,2.0100,400.00001E-3,
,,,2.0200,320.00002E-3,
,,,2.0300,384.00000E-3,
,,,2.0400,320.00002E-3,
,,,2.0500,368.00003E-3,
,,,2.0600,416.000009E-3,
,,,2.0700,344.00001E-3,
,,,2.0800,424.000025E-3,
,,,2.0900,368.00003E-3,
,,,2.1000,368.00003E-3,
,,,2.1100,384.00000E-3,
,,,2.1200,328.00001E-3,
,,,2.1300,400.00001E-3,
,,,2.1400,368.00003E-3,
,,,2.1500,352.00003E-3,
,,,2.1600,400.00001E-3,
,,,2.1700,336.00003E-3,
,,,2.1800,432.000011E-3,
,,,2.1900,352.00003E-3,
,,,2.2000,344.00001E-3,
,,,2.2100,416.000009E-3,
,,,2.2200,360.00001E-3,
,,,2.2300,400.00001E-3,
,,,2.2400,312.00001E-3,
,,,2.2500,368.00003E-3,
,,,2.2600,376.00002E-3,
,,,2.2700,344.00001E-3,
,,,2.2800,392.00002E-3,
,,,2.2900,344.00001E-3,
,,,2.3000,392.00002E-3,
,,,2.3100,392.00002E-3,
,,,2.3200,328.00001E-3,
,,,2.3300,400.00001E-3,
,,,2.3400,360.00001E-3,
,,,2.3500,352.00003E-3,
,,,2.3600,384.00000E-3,
,,,2.3700,368.00003E-3,
,,,2.3800,416.000009E-3,
,,,2.3900,352.00003E-3,
,,,2.4000,392.00002E-3,
,,,2.4100,376.00002E-3,
,,,2.4200,336.00003E-3,
,,,2.4300,400.00001E-3,
,,,2.4400,352.00003E-3,
,,,2.4500,368.00003E-3,
,,,2.4600,384.00000E-3,
,,,2.4700,328.00001E-3,
,,,2.4800,424.000025E-3,
,,,2.4900,352.00003E-3,
,,,2.5000,360.00001E-3,
,,,2.5100,376.00002E-3,
,,,2.5200,320.00002E-3,
,,,2.5300,400.00001E-3,
,,,2.5400,328.00001E-3,
,,,2.5500,368.00003E-3,
,,,2.5600,384.00000E-3,
,,,2.5700,352.00003E-3,
,,,2.5800,400.00001E-3,
,,,2.5900,384.00000E-3,
,,,2.6000,336.00003E-3,
,,,2.6100,392.00002E-3,
,,,2.6200,320.00002E-3,
,,,2.6300,400.00001E-3,
,,,2.6400,360.00001E-3,
,,,2.6500,360.00001E-3,
,,,2.6600,424.000025E-3,
,,,2.6700,336.00003E-3,
,,,2.6800,400.00001E-3,
,,,2.6900,344.00001E-3,
,,,2.7000,368.00003E-3,
,,,2.7100,392.00002E-3,
,,,2.72000,320.00002E-3,
,,,2.73000,400.00001E-3,
,,,2.74000,360.00001E-3,
,,,2.75000,344.00001E-3,
,,,2.76000,400.00001E-3,
,,,2.77000,368.00003E-3,
,,,2.78000,400.00001E-3,
,,,2.79000,368.00003E-3,
,,,2.80000,376.00002E-3,
,,,2.81000,400.00001E-3,
,,,2.82000,336.00003E-3,
,,,2.83000,408.000022E-3,
,,,2.84000,344.00001E-3,
,,,2.85000,360.00001E-3,
,,,2.86000,392.00002E-3,
,,,2.87000,360.00001E-3,
,,,2.88000,400.00001E-3,
,,,2.89000,360.00001E-3,
,,,2.90000,376.00002E-3,
,,,2.91000,392.00002E-3,
,,,2.92000,328.00001E-3,
,,,2.93000,400.00001E-3,
,,,2.94000,360.00001E-3,
,,,2.95000,344.00001E-3,
,,,2.96000,400.00001E-3,
,,,2.97000,352.00003E-3,
,,,2.98000,392.00002E-3,
,,,2.99000,368.00003E-3,
,,,3.00000,392.00002E-3,
,,,3.01000,432.000011E-3,
,,,3.02000,328.00001E-3,
,,,3.03000,384.00000E-3,
,,,3.04000,384.00000E-3,
,,,3.05000,360.00001E-3,
,,,3.06000,376.00002E-3,
,,,3.07000,328.00001E-3,
,,,3.08000,392.00002E-3,
,,,3.09000,352.00003E-3,
,,,3.10000,392.00002E-3,
,,,3.11000,400.00001E-3,
,,,3.12000,312.00001E-3,
,,,3.13000,392.00002E-3,
,,,3.14000,344.00001E-3,
,,,3.15000,352.00003E-3,
,,,3.16000,392.00002E-3,
,,,3.17000,352.00003E-3,
,,,3.18000,408.000022E-3,
,,,3.19000,360.00001E-3,
,,,3.20000,408.000022E-3,
,,,3.21000,400.00001E-3,
,,,3.22000,336.00003E-3,
,,,3.23000,400.00001E-3,
,,,3.24000,360.00001E-3,
,,,3.25000,368.00003E-3,
,,,3.26000,408.000022E-3,
,,,3.27000,328.00001E-3,
,,,3.28000,400.00001E-3,
,,,3.29000,360.00001E-3,
,,,3.30000,368.00003E-3,
,,,3.31000,416.000009E-3,
,,,3.32000,352.00003E-3,
,,,3.33000,392.00002E-3,
,,,3.34000,368.00003E-3,
,,,3.35000,360.00001E-3,
,,,3.36000,400.00001E-3,
,,,3.37000,336.00003E-3,
,,,3.38000,400.00001E-3,
,,,3.39000,384.00000E-3,
,,,3.40000,360.00001E-3,
,,,3.41000,400.00001E-3,
,,,3.42000,336.00003E-3,
,,,3.43000,400.00001E-3,
,,,3.44000,360.00001E-3,
,,,3.45000,368.00003E-3,
,,,3.46000,416.000009E-3,
,,,3.47000,360.00001E-3,
,,,3.48000,392.00002E-3,
,,,3.49000,376.00002E-3,
,,,3.50000,384.00000E-3,
,,,3.51000,424.000025E-3,
,,,3.52000,336.00003E-3,
,,,3.53000,408.000022E-3,
,,,3.54000,400.00001E-3,
,,,3.55000,360.00001E-3,
,,,3.56000,400.00001E-3,
,,,3.57000,320.00002E-3,
,,,3.58000,408.000022E-3,
,,,3.59000,376.00002E-3,
,,,3.60000,368.00003E-3,
,,,3.61000,392.00002E-3,
,,,3.62000,344.00001E-3,
,,,3.63000,384.00000E-3,
,,,3.64000,376.00002E-3,
,,,3.65000,360.00001E-3,
,,,3.66000,432.000011E-3,
,,,3.67000,352.00003E-3,
,,,3.68000,392.00002E-3,
,,,3.69000,360.00001E-3,
,,,3.70000,376.00002E-3,
,,,3.71000,400.00001E-3,
,,,3.72000,344.00001E-3,
,,,3.73000,408.000022E-3,
,,,3.74000,360.00001E-3,
,,,3.75000,376.00002E-3,
,,,3.76000,400.00001E-3,
,,,3.77000,344.00001E-3,
,,,3.78000,392.00002E-3,
,,,3.79000,352.00003E-3,
,,,3.80000,368.00003E-3,
,,,3.81000,416.000009E-3,
,,,3.82000,336.00003E-3,
,,,3.83000,408.000022E-3,
,,,3.84000,368.00003E-3,
,,,3.85000,368.00003E-3,
,,,3.86000,400.00001E-3,
,,,3.87000,376.00002E-3,
,,,3.88000,392.00002E-3,
,,,3.89000,368.00003E-3,
,,,3.90000,360.00001E-3,
,,,3.91000,408.000022E-3,
,,,3.92000,328.00001E-3,
,,,3.93000,400.00001E-3,
,,,3.94000,376.00002E-3,
,,,3.95000,368.00003E-3,
,,,3.96000,432.000011E-3,
,,,3.97000,352.00003E-3,
,,,3.98000,432.000011E-3,
,,,3.99000,376.00002E-3,
,,,4.00000,328.00001E-3,
,,,4.01000,408.000022E-3,
,,,4.02000,328.00001E-3,
,,,4.03000,384.00000E-3,
,,,4.04000,352.00003E-3,
,,,4.05000,360.00001E-3,
,,,4.06000,424.000025E-3,
,,,4.07000,320.00002E-3,
,,,4.08000,376.00002E-3,
,,,4.09000,360.00001E-3,
,,,4.10000,360.00001E-3,
,,,4.11000,400.00001E-3,
,,,4.12000,336.00003E-3,
,,,4.13000,384.00000E-3,
,,,4.14000,368.00003E-3,
,,,4.15000,376.00002E-3,
,,,4.16000,392.00002E-3,
,,,4.17000,352.00003E-3,
,,,4.18000,400.00001E-3,
,,,4.19000,376.00002E-3,
,,,4.20000,352.00003E-3,
,,,4.21000,408.000022E-3,
,,,4.22000,336.00003E-3,
,,,4.23000,392.00002E-3,
,,,4.24000,352.00003E-3,
,,,4.25000,376.00002E-3,
,,,4.26000,392.00002E-3,
,,,4.27000,328.00001E-3,
,,,4.28000,376.00002E-3,
,,,4.29000,392.00002E-3,
,,,4.30000,352.00003E-3,
,,,4.31000,400.00001E-3,
,,,4.32000,344.00001E-3,
,,,4.33000,400.00001E-3,
,,,4.34000,368.00003E-3,
,,,4.35000,352.00003E-3,
,,,4.36000,392.00002E-3,
,,,4.37000,344.00001E-3,
,,,4.38000,352.00003E-3,
,,,4.39000,360.00001E-3,
,,,4.40000,344.00001E-3,
,,,4.41000,352.00003E-3,
,,,4.42000,352.00003E-3,
,,,4.43000,416.000009E-3,
,,,4.44000,392.00002E-3,
,,,4.45000,376.00002E-3,
,,,4.46000,392.00002E-3,
,,,4.47000,336.00003E-3,
,,,4.48000,384.00000E-3,
,,,4.49000,360.00001E-3,
,,,4.50000,360.00001E-3,
,,,4.51000,392.00002E-3,
,,,4.52000,344.00001E-3,
,,,4.53000,400.00001E-3,
,,,4.54000,368.00003E-3,
,,,4.55000,368.00003E-3,
,,,4.56000,400.00001E-3,
,,,4.57000,336.00003E-3,
,,,4.58000,368.00003E-3,
,,,4.59000,368.00003E-3,
,,,4.60000,352.00003E-3,
,,,4.61000,416.000009E-3,
,,,4.62000,360.00001E-3,
,,,4.63000,368.00003E-3,
,,,4.64000,368.00003E-3,
,,,4.65000,360.00001E-3,
,,,4.66000,424.000025E-3,
,,,4.67000,352.00003E-3,
,,,4.68000,400.00001E-3,
,,,4.69000,368.00003E-3,
,,,4.70000,352.00003E-3,
,,,4.71000,416.000009E-3,
,,,4.72000,352.00003E-3,
,,,4.73000,400.00001E-3,
,,,4.74000,352.00003E-3,
,,,4.75000,344.00001E-3,
,,,4.76000,416.000009E-3,
,,,4.77000,360.00001E-3,
,,,4.78000,416.000009E-3,
,,,4.79000,360.00001E-3,
,,,4.80000,336.00003E-3,
,,,4.81000,400.00001E-3,
,,,4.82000,352.00003E-3,
,,,4.83000,376.00002E-3,
,,,4.84000,376.00002E-3,
,,,4.85000,352.00003E-3,
,,,4.86000,392.00002E-3,
,,,4.87000,360.00001E-3,
,,,4.88000,400.00001E-3,
,,,4.89000,360.00001E-3,
,,,4.90000,352.00003E-3,
,,,4.91000,408.000022E-3,
,,,4.92000,344.00001E-3,
,,,4.93000,376.00002E-3,
,,,4.94000,360.00001E-3,
,,,4.95000,368.00003E-3,
,,,4.96000,400.00001E-3,
,,,4.97000,336.00003E-3,
,,,4.98000,384.00000E-3,
,,,4.99000,360.00001E-3,
,,,5.00000,352.00003E-3,
,,,5.01000,432.000011E-3,
,,,5.02000,328.00001E-3,
,,,5.03000,392.00002E-3,
,,,5.04000,376.00002E-3,
,,,5.05000,360.00001E-3,
,,,5.06000,408.000022E-3,
,,,5.07000,336.00003E-3,
,,,5.08000,416.000009E-3,
,,,5.09000,384.00000E-3,
,,,5.10000,368.00003E-3,
,,,5.11000,400.00001E-3,
,,,5.12000,336.00003E-3,
,,,5.13000,400.00001E-3,
,,,5.14000,368.00003E-3,
,,,5.15000,344.00001E-3,
,,,5.16000,392.00002E-3,
,,,5.17000,328.00001E-3,
,,,5.18000,408.000022E-3,
,,,5.19000,360.00001E-3,
,,,5.20000,360.00001E-3,
,,,5.21000,408.000022E-3,
,,,5.22000,344.00001E-3,
,,,5.23000,384.00000E-3,
,,,5.24000,352.00003E-3,
,,,5.25000,368.00003E-3,
,,,5.26000,416.000009E-3,
,,,5.27000,344.00001E-3,
,,,5.28000,408.000022E-3,
,,,5.29000,376.00002E-3,
,,,5.30000,360.00001E-3,
,,,5.31000,384.00000E-3,
,,,5.32000,328.00001E-3,
,,,5.33000,384.00000E-3,
,,,5.34000,384.00000E-3,
,,,5.35000,360.00001E-3,
,,,5.36000,400.00001E-3,
,,,5.37000,352.00003E-3,
,,,5.38000,408.000022E-3,
,,,5.39000,360.00001E-3,
,,,5.40000,368.00003E-3,
,,,5.41000,416.000009E-3,
,,,5.42000,360.00001E-3,
,,,5.43000,384.00000E-3,
,,,5.44000,368.00003E-3,
,,,5.45000,360.00001E-3,
,,,5.46000,416.000009E-3,
,,,5.47000,344.00001E-3,
,,,5.48000,416.000009E-3,
,,,5.49000,360.00001E-3,
,,,5.50000,344.00001E-3,
,,,5.51000,400.00001E-3,
,,,5.52000,344.00001E-3,
,,,5.53000,376.00002E-3,
,,,5.54000,360.00001E-3,
,,,5.55000,360.00001E-3,
,,,5.56000,424.000025E-3,
,,,5.57000,344.00001E-3,
,,,5.58000,408.000022E-3,
,,,5.59000,392.00002E-3,
,,,5.60000,352.00003E-3,
,,,5.61000,392.00002E-3,
,,,5.62000,344.00001E-3,
,,,5.63000,344.00001E-3,
,,,5.64000,360.00001E-3,
,,,5.65000,368.00003E-3,
,,,5.66000,400.00001E-3,
,,,5.67000,352.00003E-3,
,,,5.68000,400.00001E-3,
,,,5.69000,368.00003E-3,
,,,5.70000,352.00003E-3,
,,,5.71000,400.00001E-3,
,,,5.72000,344.00001E-3,
,,,5.73000,400.00001E-3,
,,,5.74000,376.00002E-3,
,,,5.75000,360.00001E-3,
,,,5.76000,416.000009E-3,
,,,5.77000,352.00003E-3,
,,,5.78000,384.00000E-3,
,,,5.79000,360.00001E-3,
,,,5.80000,344.00001E-3,
,,,5.81000,400.00001E-3,
,,,5.82000,336.00003E-3,
,,,5.83000,384.00000E-3,
,,,5.84000,376.00002E-3,
,,,5.85000,384.00000E-3,
,,,5.86000,400.00001E-3,
,,,5.87000,336.00003E-3,
,,,5.88000,384.00000E-3,
,,,5.89000,384.00000E-3,
,,,5.90000,336.00003E-3,
,,,5.91000,400.00001E-3,
,,,5.92000,328.00001E-3,
,,,5.93000,392.00002E-3,
,,,5.94000,352.00003E-3,
,,,5.95000,352.00003E-3,
,,,5.96000,376.00002E-3,
,,,5.97000,344.00001E-3,
,,,5.98000,392.00002E-3,
,,,5.99000,384.00000E-3,
,,,6.00000,376.00002E-3,
,,,6.01000,416.000009E-3,
,,,6.02000,344.00001E-3,
,,,6.03000,368.00003E-3,
,,,6.04000,368.00003E-3,
,,,6.05000,344.00001E-3,
,,,6.06000,440.000027E-3,
,,,6.07000,344.00001E-3,
,,,6.08000,384.00000E-3,
,,,6.09000,384.00000E-3,
,,,6.10000,344.00001E-3,
,,,6.11000,408.000022E-3,
,,,6.12000,352.00003E-3,
,,,6.13000,408.000022E-3,
,,,6.14000,368.00003E-3,
,,,6.15000,352.00003E-3,
,,,6.16000,392.00002E-3,
,,,6.17000,352.00003E-3,
,,,6.18000,392.00002E-3,
,,,6.19000,352.00003E-3,
,,,6.20000,360.00001E-3,
,,,6.21000,416.000009E-3,
,,,6.22000,352.00003E-3,
,,,6.23000,392.00002E-3,
,,,6.24000,352.00003E-3,
,,,6.25000,336.00003E-3,
,,,6.26000,416.000009E-3,
,,,6.27000,336.00003E-3,
,,,6.28000,376.00002E-3,
,,,6.29000,368.00003E-3,
,,,6.30000,344.00001E-3,
,,,6.31000,400.00001E-3,
,,,6.32000,352.00003E-3,
,,,6.33000,400.00001E-3,
,,,6.34000,360.00001E-3,
,,,6.35000,352.00003E-3,
,,,6.36000,400.00001E-3,
,,,6.37000,352.00003E-3,
,,,6.38000,400.00001E-3,
,,,6.39000,360.00001E-3,
,,,6.40000,336.00003E-3,
,,,6.41000,376.00002E-3,
,,,6.42000,368.00003E-3,
,,,6.43000,384.00000E-3,
,,,6.44000,376.00002E-3,
,,,6.45000,368.00003E-3,
,,,6.46000,416.000009E-3,
,,,6.47000,352.00003E-3,
,,,6.48000,384.00000E-3,
,,,6.49000,360.00001E-3,
,,,6.50000,320.00002E-3,
,,,6.51000,408.000022E-3,
,,,6.52000,352.00003E-3,
,,,6.53000,392.00002E-3,
,,,6.54000,368.00003E-3,
,,,6.55000,320.00002E-3,
,,,6.56000,424.000025E-3,
,,,6.57000,368.00003E-3,
,,,6.58000,368.00003E-3,
,,,6.59000,392.00002E-3,
,,,6.60000,328.00001E-3,
,,,6.61000,440.000027E-3,
,,,6.62000,384.00000E-3,
,,,6.63000,408.000022E-3,
,,,6.64000,368.00003E-3,
,,,6.65000,328.00001E-3,
,,,6.66000,400.00001E-3,
,,,6.67000,328.00001E-3,
,,,6.68000,400.00001E-3,
,,,6.69000,376.00002E-3,
,,,6.70000,376.00002E-3,
,,,6.71000,400.00001E-3,
,,,6.72000,344.00001E-3,
,,,6.73000,416.000009E-3,
,,,6.74000,376.00002E-3,
,,,6.75000,352.00003E-3,
,,,6.76000,400.00001E-3,
,,,6.77000,352.00003E-3,
,,,6.78000,376.00002E-3,
,,,6.79000,384.00000E-3,
,,,6.80000,344.00001E-3,
,,,6.81000,416.000009E-3,
,,,6.82000,336.00003E-3,
,,,6.83000,384.00000E-3,
,,,6.84000,376.00002E-3,
,,,6.85000,344.00001E-3,
,,,6.86000,440.000027E-3,
,,,6.87000,376.00002E-3,
,,,6.88000,400.00001E-3,
,,,6.89000,376.00002E-3,
,,,6.90000,336.00003E-3,
,,,6.91000,440.000027E-3,
,,,6.92000,368.00003E-3,
,,,6.93000,376.00002E-3,
,,,6.94000,392.00002E-3,
,,,6.95000,344.00001E-3,
,,,6.96000,400.00001E-3,
,,,6.97000,352.00003E-3,
,,,6.98000,384.00000E-3,
,,,6.99000,368.00003E-3,
,,,7.00000,336.00003E-3,
,,,7.01000,432.000011E-3,
,,,7.02000,360.00001E-3,
,,,7.03000,376.00002E-3,
,,,7.04000,384.00000E-3,
,,,7.05000,344.00001E-3,
,,,7.06000,400.00001E-3,
,,,7.07000,352.00003E-3,
,,,7.08000,344.00001E-3,
,,,7.09000,368.00003E-3,
,,,7.10000,368.00003E-3,
,,,7.11000,400.00001E-3,
,,,7.12000,368.00003E-3,
,,,7.13000,384.00000E-3,
,,,7.14000,376.00002E-3,
,,,7.15000,344.00001E-3,
,,,7.16000,416.000009E-3,
,,,7.17000,336.00003E-3,
,,,7.18000,400.00001E-3,
,,,7.19000,408.000022E-3,
,,,7.20000,344.00001E-3,
,,,7.21000,400.00001E-3,
,,,7.22000,344.00001E-3,
,,,7.23000,384.00000E-3,
,,,7.24000,376.00002E-3,
,,,7.25000,352.00003E-3,
,,,7.26000,416.000009E-3,
,,,7.27000,336.00003E-3,
,,,7.28000,368.00003E-3,
,,,7.29000,376.00002E-3,
,,,7.30000,344.00001E-3,
,,,7.31000,416.000009E-3,
,,,7.32000,384.00000E-3,
,,,7.33000,368.00003E-3,
,,,7.34000,384.00000E-3,
,,,7.35000,344.00001E-3,
,,,7.36000,400.00001E-3,
,,,7.37000,344.00001E-3,
,,,7.38000,336.00003E-3,
,,,7.390000,392.00002E-3,
,,,7.400000,336.00003E-3,
,,,7.410000,408.000022E-3,
,,,7.420000,344.00001E-3,
,,,7.430000,376.00002E-3,
,,,7.440000,368.00003E-3,
,,,7.450000,344.00001E-3,
,,,7.460000,400.00001E-3,
,,,7.470000,360.00001E-3,
,,,7.480000,392.00002E-3,
,,,7.490000,352.00003E-3,
,,,7.500000,328.00001E-3,
,,,7.510000,400.00001E-3,
,,,7.520000,344.00001E-3,
,,,7.530000,336.00003E-3,
,,,7.540000,368.00003E-3,
,,,7.550000,352.00003E-3,
,,,7.560000,408.000022E-3,
,,,7.570000,368.00003E-3,
,,,7.580000,408.000022E-3,
,,,7.590000,392.00002E-3,
,,,7.600000,336.00003E-3,
,,,7.610000,408.000022E-3,
,,,7.620000,360.00001E-3,
,,,7.630000,360.00001E-3,
,,,7.640000,368.00003E-3,
,,,7.650000,328.00001E-3,
,,,7.660000,392.00002E-3,
,,,7.670000,352.00003E-3,
,,,7.680000,368.00003E-3,
,,,7.690000,360.00001E-3,
,,,7.700000,328.00001E-3,
,,,7.710000,448.000014E-3,
,,,7.720000,352.00003E-3,
,,,7.730000,376.00002E-3,
,,,7.740000,384.00000E-3,
,,,7.750000,344.00001E-3,
,,,7.760000,424.000025E-3,
