data/control/romantest4c.csv

Record Length,2500,Points,0.0,-10.2400,
Sample Interval,10.00000E-3,s,10.00000E-3,-10.2400,
Trigger Point,0.0,Samples,20.0000E-3,-10.2400,
,,,30.00000E-3,-10.2400,
,,,40.00000E-3,-10.2400,
,,,50.00000E-3,-10.2400,
Source,CH1,,59.999999E-3,-10.2400,
Vertical Units,Volts,,70.000000E-3,-10.2400,
Vertical Scale,2.0478,,79.999998E-3,-10.2400,
Vertical Offset,0,,89.999996E-3,-10.2400,
Horizontal Units,s,,99.999994E-3,-10.2400,
Horizontal Scale,2.5000,,110.0000E-3,-10.2400,
Pt Fmt,Y,,120.0000E-3,-10.2400,
Yzero,0.0,,130.0000E-3,-10.2400,
Probe Atten,10.0000,,140.0000E-3,-10.2400,
,,,149.99999E-3,-10.2400,
Note,TDS 2012 - 3:35:55 PM   4/26/2022,,160.00000E-3,-10.2400,
,,,170.00000E-3,-10.2400,
,,,179.99999E-3,-10.2400,
,,,190.00000E-3,-10.2400,
,,,199.99999E-3,-10.2400,
,,,209.99999E-3,-10.2400,
,,,220.00000E-3,-10.2400,
,,,229.99999E-3,-10.2400,
,,,239.99999E-3,-10.2400,
,,,250.00000E-3,-10.2400,
,,,259.99999E-3,-10.2400,
,,,269.99998E-3,-10.2400,
,,,280.00000E-3,-10.2400,
,,,289.99999E-3,-10.2400,
,,,299.99998E-3,-10.2400,
,,,310.00000E-3,-10.2400,
,,,319.99999E-3,-10.2400,
,,,329.99998E-3,-10.2400,
,,,340.00000E-3,-10.2400,
,,,349.99999E-3,-10.2400,
,,,359.99998E-3,-10.2400,
,,,370.00000E-3,-10.2400,
,,,380.00000E-3,-10.2400,
,,,389.99999E-3,-10.2400,
,,,399.99998E-3,-10.2400,
,,,409.999996E-3,-10.2400,
,,,419.999987E-3,-10.2400,
,,,429.999977E-3,-10.2400,
,,,439.999998E-3,-10.2400,
,,,449.999988E-3,-10.2400,
,,,459.999979E-3,10.1600,
,,,469.999999E-3,10.1600,
,,,479.999989E-3,10.1600,
,,,489.999980E-3,-10.1600,
,,,500.000000E-3,-10.1600,
,,,509.999990E-3,-10.1600,
,,,519.999981E-3,10.1600,
,,,529.999971E-3,-10.1600,
,,,539.999962E-3,10.1600,
,,,550.000012E-3,10.1600,
,,,560.000002E-3,10.1600,
,,,569.999993E-3,-10.1600,
,,,579.999983E-3,-8.480000,
,,,589.999974E-3,-10.1600,
,,,599.999964E-3,-7.20000,
,,,610.000014E-3,-10.1600,
,,,620.000005E-3,-3.76000,
,,,629.999995E-3,-7.760000,
,,,639.999986E-3,-5.04000,
,,,649.999976E-3,-3.60000,
,,,659.999967E-3,3.52000,
,,,669.999957E-3,-3.20000,
,,,680.000007E-3,-2.1600,
,,,689.999998E-3,-1.6800,
,,,699.999988E-3,4.80000,
,,,709.999979E-3,7.680000,
,,,719.999969E-3,10.1600,
,,,729.999959E-3,-7.12000,
,,,740.000010E-3,10.1600,
,,,750.000000E-3,10.1600,
,,,759.999990E-3,-10.1600,
,,,769.999981E-3,-10.1600,
,,,779.999971E-3,-8.400000,
,,,789.999962E-3,-560.000002E-3,
,,,799.999952E-3,-8.800000,
,,,810.000002E-3,-6.56000,
,,,819.999993E-3,1.6800,
,,,829.999983E-3,-4.40000,
,,,839.999974E-3,-2.88000,
,,,849.999964E-3,-2.2400,
,,,859.999955E-3,4.48000,
,,,870.000005E-3,-2.80000,
,,,879.999995E-3,-1.8400,
,,,889.999986E-3,-1.4400,
,,,899.999976E-3,10.1600,
,,,909.999967E-3,4.64000,
,,,919.999957E-3,-79.999998E-3,
,,,930.000007E-3,-6.48000,
,,,939.999998E-3,1.3600,
,,,949.999988E-3,10.1600,
,,,959.999979E-3,10.1600,
,,,969.999969E-3,-10.1600,
,,,979.999959E-3,10.1600,
,,,989.999950E-3,10.1600,
,,,1.000,10.1600,
,,,1.0100,-10.1600,
,,,1.0200,-10.1600,
,,,1.0300,-7.840000,
,,,1.0400,-10.1600,
,,,1.0500,-9.440000,
,,,1.0600,-319.99999E-3,
,,,1.0700,-5.60000,
,,,1.0800,-3.68000,
,,,1.0900,-2.4000,
,,,1.1000,3.20000,
,,,1.1100,10.1600,
,,,1.1200,10.1600,
,,,1.1300,-10.1600,
,,,1.1400,3.92000,
,,,1.1500,4.16000,
,,,1.1600,10.1600,
,,,1.1700,-10.1600,
,,,1.1800,10.1600,
,,,1.1900,10.1600,
,,,1.2000,10.1600,
,,,1.2100,-10.1600,
,,,1.2200,-10.1600,
,,,1.2300,-6.56000,
,,,1.2400,-3.20000,
,,,1.2500,-9.440000,
,,,1.2600,-1.1200,
,,,1.2700,-6.00000,
,,,1.2800,-3.92000,
,,,1.2900,-2.80000,
,,,1.3000,3.84000,
,,,1.3100,-2.88000,
,,,1.3200,-1.9200,
,,,1.3300,-1.6000,
,,,1.3400,10.1600,
,,,1.3500,10.1600,
,,,1.3600,10.1600,
,,,1.3700,-8.720000,
,,,1.3800,10.1600,
,,,1.3900,10.1600,
,,,1.4000,10.1600,
,,,1.4100,-10.1600,
,,,1.4200,10.1600,
,,,1.4300,10.1600,
,,,1.4400,10.1600,
,,,1.4500,-10.1600,
,,,1.4600,-10.1600,
,,,1.4700,-9.599999,
,,,1.4800,-10.1600,
,,,1.4900,-10.1600,
,,,1.5000,-3.04000,
,,,1.5100,-7.520000,
,,,1.5200,-4.96000,
,,,1.5300,-3.44000,
,,,1.5400,4.00000,
,,,1.5500,-3.36000,
,,,1.5600,-2.2400,
,,,1.5700,-1.7600,
,,,1.5800,5.04000,
,,,1.5900,8.480000,
,,,1.6000,10.1600,
,,,1.6100,-7.680000,
,,,1.6200,10.1600,
,,,1.6300,10.1600,
,,,1.6400,-10.1600,
,,,1.6500,-10.1600,
,,,1.6600,-9.440000,
,,,1.6700,-1.3600,
,,,1.6800,-9.679999,
,,,1.6900,-7.28000,
,,,1.7000,1.6800,
,,,1.7100,-5.04000,
,,,1.7200,-3.28000,
,,,1.7300,-2.4800,
,,,1.7400,4.80000,
,,,1.7500,-3.04000,
,,,1.7600,-2.0800,
,,,1.7700,-1.6800,
,,,1.7800,10.1600,
,,,1.7900,10.1600,
,,,1.8000,10.1600,
,,,1.8100,-10.1600,
,,,1.8200,10.1600,
,,,1.8300,10.1600,
,,,1.8400,10.1600,
,,,1.8500,-10.1600,
,,,1.8600,10.1600,
,,,1.8700,-10.1600,
,,,1.8800,-10.1600,
,,,1.8900,-10.1600,
,,,1.9000,6.72000,
,,,1.9100,-4.24000,
,,,1.9200,-9.599999,
,,,1.9300,-7.04000,
,,,1.9400,2.2400,
,,,1.9500,-5.04000,
,,,1.9600,-3.28000,
,,,1.9700,-2.5600,
,,,1.9800,5.28000,
,,,1.9900,-3.20000,
,,,2.0000,-2.1600,
,,,2.0100,-639.999986E-3,
,,,2.0200,4.08000,
,,,2.0300,-3.76000,
,,,2.0400,-3.76000,
,,,2.0500,-4.16000,
,,,2.0600,2.5600,
,,,2.0700,10.1600,
,,,2.0800,10.1600,
,,,2.0900,-10.1600,
,,,2.1000,6.16000,
,,,2.1100,-10.1600,
,,,2.1200,-3.84000,
,,,2.1300,-10.1600,
,,,2.1400,-1.8400,
,,,2.1500,-7.12000,
,,,2.1600,5.84000,
,,,2.1700,-6.88000,
,,,2.1800,10.1600,
,,,2.1900,10.1600,
,,,2.2000,10.1600,
,,,2.2100,-10.1600,
,,,2.2200,-10.1600,
,,,2.2300,-10.1600,
,,,2.2400,-2.3200,
,,,2.2500,-10.1600,
,,,2.2600,10.1600,
,,,2.2700,-319.99999E-3,
,,,2.2800,10.1600,
,,,2.2900,-10.1600,
,,,2.3000,-4.56000,
,,,2.3100,-10.1600,
,,,2.3200,-3.12000,
,,,2.3300,-10.1600,
,,,2.3400,-2.2400,
,,,2.3500,-7.440000,
,,,2.3600,-4.96000,
,,,2.3700,-3.52000,
,,,2.3800,4.24000,
,,,2.3900,-3.44000,
,,,2.4000,-2.4000,
,,,2.4100,-1.8400,
,,,2.4200,5.28000,
,,,2.4300,-3.68000,
,,,2.4400,8.559999,
,,,2.4500,-4.88000,
,,,2.4600,10.1600,
,,,2.4700,10.1600,
,,,2.4800,10.1600,
,,,2.4900,-10.1600,
,,,2.5000,-8.720000,
,,,2.5100,-10.1600,
,,,2.5200,-7.840000,
,,,2.5300,-10.1600,
,,,2.5400,-4.48000,
,,,2.5500,-8.880000,
,,,2.5600,-5.76000,
,,,2.5700,-4.08000,
,,,2.5800,4.00000,
,,,2.5900,-3.68000,
,,,2.6000,-2.4800,
,,,2.6100,-2.0000,
,,,2.6200,5.28000,
,,,2.6300,8.240000,
,,,2.6400,10.1600,
,,,2.6500,-9.280000,
,,,2.6600,10.1600,
,,,2.6700,10.1600,
,,,2.6800,10.1600,
,,,2.6900,-10.1600,
,,,2.7000,8.559999,
,,,2.7100,9.280000,
,,,2.72000,10.1600,
,,,2.73000,-10.1600,
,,,2.74000,10.1600,
,,,2.75000,-10.1600,
,,,2.76000,-10.1600,
,,,2.77000,-10.1600,
,,,2.78000,-4.32000,
,,,2.79000,-10.0800,
,,,2.80000,-6.64000,
,,,2.81000,-4.64000,
,,,2.82000,3.44000,
,,,2.83000,-3.92000,
,,,2.84000,-2.6400,
,,,2.85000,-2.0800,
,,,2.86000,5.20000,
,,,2.87000,-2.88000,
,,,2.88000,10.1600,
,,,2.89000,-5.44000,
,,,2.90000,1.7600,
,,,2.91000,6.72000,
,,,2.92000,10.1600,
,,,2.93000,-8.800000,
,,,2.94000,10.1600,
,,,2.95000,10.1600,
,,,2.96000,10.1600,
,,,2.97000,-10.1600,
,,,2.98000,-10.1600,
,,,2.99000,-9.599999,
,,,3.00000,-8.720000,
,,,3.01000,-10.1600,
,,,3.02000,-2.0000,
,,,3.03000,-7.28000,
,,,3.04000,-4.72000,
,,,3.05000,-3.44000,
,,,3.06000,4.24000,
,,,3.07000,-3.44000,
,,,3.08000,-2.3200,
,,,3.09000,-1.8400,
,,,3.10000,5.28000,
,,,3.11000,-3.12000,
,,,3.12000,8.000000,
,,,3.13000,-4.80000,
,,,3.14000,10.1600,
,,,3.15000,10.1600,
,,,3.16000,10.1600,
,,,3.17000,-10.1600,
,,,3.18000,10.1600,
,,,3.19000,10.1600,
,,,3.20000,10.1600,
,,,3.21000,-10.1600,
,,,3.22000,-10.1600,
,,,3.23000,-9.520000,
,,,3.24000,-10.1600,
,,,3.25000,-10.1600,
,,,3.26000,-1.1200,
,,,3.27000,-6.80000,
,,,3.28000,-4.40000,
,,,3.29000,-3.20000,
,,,3.30000,4.40000,
,,,3.31000,-3.44000,
,,,3.32000,-2.3200,
,,,3.33000,-1.8400,
,,,3.34000,5.28000,
,,,3.35000,8.559999,
,,,3.36000,10.1600,
,,,3.37000,-7.920000,
,,,3.38000,10.1600,
,,,3.39000,-10.1600,
,,,3.40000,-10.1600,
,,,3.41000,-10.1600,
,,,3.42000,-2.0800,
,,,3.43000,-8.720000,
,,,3.44000,-5.76000,
,,,3.45000,-4.00000,
,,,3.46000,3.92000,
,,,3.47000,-3.68000,
,,,3.48000,-2.4800,
,,,3.49000,-1.9200,
,,,3.50000,5.20000,
,,,3.51000,-2.96000,
,,,3.52000,10.1600,
,,,3.53000,-2.96000,
,,,3.54000,10.1600,
,,,3.55000,3.12000,
,,,3.56000,10.1600,
,,,3.57000,-10.1600,
,,,3.58000,10.1600,
,,,3.59000,10.1600,
,,,3.60000,10.1600,
,,,3.61000,-10.1600,
,,,3.62000,-10.1600,
,,,3.63000,-7.36000,
,,,3.64000,-3.52000,
,,,3.65000,-10.1600,
,,,3.66000,-2.3200,
,,,3.67000,-7.440000,
,,,3.68000,-4.96000,
,,,3.69000,-3.52000,
,,,3.70000,4.16000,
,,,3.71000,-3.52000,
,,,3.72000,-2.3200,
,,,3.73000,-1.8400,
,,,3.74000,5.28000,
,,,3.75000,4.00000,
,,,3.76000,5.52000,
,,,3.77000,-7.12000,
,,,3.78000,10.1600,
,,,3.79000,10.1600,
,,,3.80000,10.1600,
,,,3.81000,-10.1600,
,,,3.82000,-10.1600,
,,,3.83000,-6.72000,
,,,3.84000,-6.56000,
,,,3.85000,-10.1600,
,,,3.86000,-1.1200,
,,,3.87000,-6.80000,
,,,3.88000,-4.40000,
,,,3.89000,-3.20000,
,,,3.90000,4.40000,
,,,3.91000,-3.44000,
,,,3.92000,-2.3200,
,,,3.93000,-1.7600,
,,,3.94000,5.28000,
,,,3.95000,-1.8400,
,,,3.96000,9.040000,
,,,3.97000,-5.04000,
,,,3.98000,10.1600,
,,,3.99000,10.1600,
,,,4.00000,-10.1600,
,,,4.01000,-10.1600,
,,,4.02000,-9.760000,
,,,4.03000,-1.5200,
,,,4.04000,10.1600,
,,,4.05000,-10.1600,
,,,4.06000,10.1600,
,,,4.07000,2.3200,
,,,4.08000,10.1600,
,,,4.09000,-10.1600,
,,,4.10000,10.1600,
,,,4.11000,-10.1600,
,,,4.12000,-9.679999,
,,,4.13000,-10.1600,
,,,4.14000,-5.04000,
,,,4.15000,-9.200000,
,,,4.16000,-6.08000,
,,,4.17000,-4.16000,
,,,4.18000,3.76000,
,,,4.19000,-3.76000,
,,,4.20000,-2.5600,
,,,4.21000,-2.0000,
,,,4.22000,10.1600,
,,,4.23000,10.1600,
,,,4.24000,10.1600,
,,,4.25000,-10.1600,
,,,4.26000,10.1600,
,,,4.27000,-9.840000,
,,,4.28000,-8.400000,
,,,4.29000,-10.1600,
,,,4.30000,-4.96000,
,,,4.31000,-9.040000,
,,,4.32000,-6.00000,
,,,4.33000,-4.16000,
,,,4.34000,3.76000,
,,,4.35000,-3.92000,
,,,4.36000,-2.4800,
,,,4.37000,-2.0000,
,,,4.38000,5.20000,
,,,4.39000,-2.88000,
,,,4.40000,-2.0800,
,,,4.41000,-1.7600,
,,,4.42000,10.1600,
,,,4.43000,10.1600,
,,,4.44000,10.1600,
,,,4.45000,-10.1600,
,,,4.46000,10.1600,
,,,4.47000,-7.840000,
,,,4.48000,10.1600,
,,,4.49000,-10.1600,
,,,4.50000,10.1600,
,,,4.51000,10.1600,
,,,4.52000,7.440000,
,,,4.53000,-10.1600,
,,,4.54000,-10.1600,
,,,4.55000,-10.1600,
,,,4.56000,-10.1600,
,,,4.57000,-10.1600,
,,,4.58000,-2.72000,
,,,4.59000,10.1600,
,,,4.60000,10.1600,
,,,4.61000,-10.1600,
,,,4.62000,-7.36000,
,,,4.63000,-10.1600,
,,,4.64000,-10.1600,
,,,4.65000,-10.1600,
,,,4.66000,-4.40000,
,,,4.67000,1.5200,
,,,4.68000,10.1600,
,,,4.69000,-10.1600,
,,,4.70000,-2.0800,
,,,4.71000,-10.1600,
,,,4.72000,-319.99999E-3,
,,,4.73000,-10.1600,
,,,4.74000,-1.2000,
,,,4.75000,-6.80000,
,,,4.76000,-4.48000,
,,,4.77000,-3.20000,
,,,4.78000,4.32000,
,,,4.79000,-3.44000,
,,,4.80000,-2.3200,
,,,4.81000,-1.8400,
,,,4.82000,5.20000,
,,,4.83000,10.1600,
,,,4.84000,7.440000,
,,,4.85000,-6.32000,
,,,4.86000,1.5200,
,,,4.87000,10.1600,
,,,4.88000,10.1600,
,,,4.89000,-10.1600,
,,,4.90000,-4.88000,
,,,4.91000,10.1600,
,,,4.92000,10.1600,
,,,4.93000,-10.1600,
,,,4.94000,-7.28000,
,,,4.95000,-10.1600,
,,,4.96000,-3.68000,
,,,4.97000,-10.1600,
,,,4.98000,-2.4800,
,,,4.99000,-7.520000,
,,,5.00000,-5.04000,
,,,5.01000,-3.52000,
,,,5.02000,4.16000,
,,,5.03000,-3.52000,
,,,5.04000,-2.4000,
,,,5.05000,-1.8400,
,,,5.06000,10.1600,
,,,5.07000,10.1600,
,,,5.08000,10.1600,
,,,5.09000,-9.040000,
,,,5.10000,10.1600,
,,,5.11000,10.1600,
,,,5.12000,10.1600,
,,,5.13000,-10.1600,
,,,5.14000,10.1600,
,,,5.15000,-10.1600,
,,,5.16000,-8.639999,
,,,5.17000,-10.1600,
,,,5.18000,-4.88000,
,,,5.19000,-8.960000,
,,,5.20000,-5.84000,
,,,5.21000,-4.00000,
,,,5.22000,3.68000,
,,,5.23000,-3.68000,
,,,5.24000,-2.4800,
,,,5.25000,-1.9200,
,,,5.26000,5.12000,
,,,5.27000,-2.88000,
,,,5.28000,10.1600,
,,,5.29000,-9.440000,
,,,5.30000,7.920000,
,,,5.31000,10.1600,
,,,5.32000,10.1600,
,,,5.33000,-10.1600,
,,,5.34000,-4.08000,
,,,5.35000,-10.1600,
,,,5.36000,10.1600,
,,,5.37000,-10.1600,
,,,5.38000,10.1600,
,,,5.39000,-8.080000,
,,,5.40000,-6.88000,
,,,5.41000,-10.1600,
,,,5.42000,-4.72000,
,,,5.43000,-8.800000,
,,,5.44000,-5.68000,
,,,5.45000,-4.00000,
,,,5.46000,3.68000,
,,,5.47000,-3.76000,
,,,5.48000,-2.4800,
,,,5.49000,-1.9200,
,,,5.50000,5.04000,
,,,5.51000,-2.88000,
,,,5.52000,10.1600,
,,,5.53000,-3.60000,
,,,5.54000,1.6000,
,,,5.55000,10.1600,
,,,5.56000,10.1600,
,,,5.57000,-10.1600,
,,,5.58000,10.1600,
,,,5.59000,10.1600,
,,,5.60000,-10.1600,
,,,5.61000,-10.1600,
,,,5.62000,-9.520000,
,,,5.63000,-10.1600,
,,,5.64000,-9.840000,
,,,5.65000,-6.72000,
,,,5.66000,2.0000,
,,,5.67000,-4.80000,
,,,5.68000,-3.12000,
,,,5.69000,-2.4000,
,,,5.70000,4.80000,
,,,5.71000,-3.04000,
,,,5.72000,10.1600,
,,,5.73000,-4.32000,
,,,5.74000,2.72000,
,,,5.75000,7.440000,
,,,5.76000,2.0800,
,,,5.77000,-5.52000,
,,,5.78000,10.1600,
,,,5.79000,10.1600,
,,,5.80000,2.4800,
,,,5.81000,-10.1600,
,,,5.82000,10.1600,
,,,5.83000,1.3600,
,,,5.84000,10.1600,
,,,5.85000,-10.1600,
,,,5.86000,-10.1600,
,,,5.87000,-5.04000,
,,,5.88000,-10.1600,
,,,5.89000,-9.200000,
,,,5.90000,239.99999E-3,
,,,5.91000,-5.84000,
,,,5.92000,-3.76000,
,,,5.93000,-2.80000,
,,,5.94000,4.48000,
,,,5.95000,-3.20000,
,,,5.96000,-2.1600,
,,,5.97000,-1.7600,
,,,5.98000,5.20000,
,,,5.99000,9.440000,
,,,6.00000,10.1600,
,,,6.01000,-7.600000,
,,,6.02000,10.1600,
,,,6.03000,10.1600,
,,,6.04000,10.1600,
,,,6.05000,-10.1600,
,,,6.06000,-5.84000,
,,,6.07000,-10.1600,
,,,6.08000,-2.0000,
,,,6.09000,-10.1600,
,,,6.10000,-1.7600,
,,,6.11000,-7.04000,
,,,6.12000,-4.64000,
,,,6.13000,-3.28000,
,,,6.14000,4.16000,
,,,6.15000,-3.52000,
,,,6.16000,-2.2400,
,,,6.17000,-1.8400,
,,,6.18000,5.12000,
,,,6.19000,10.1600,
,,,6.20000,4.64000,
,,,6.21000,-10.1600,
,,,6.22000,10.1600,
,,,6.23000,10.1600,
,,,6.24000,3.60000,
,,,6.25000,-10.1600,
,,,6.26000,10.1600,
,,,6.27000,10.1600,
,,,6.28000,10.1600,
,,,6.29000,-10.1600,
,,,6.30000,10.1600,
,,,6.31000,10.1600,
,,,6.32000,-10.1600,
,,,6.33000,-10.1600,
,,,6.34000,-6.96000,
,,,6.35000,-10.0800,
,,,6.36000,-6.56000,
,,,6.37000,-4.56000,
,,,6.38000,3.28000,
,,,6.39000,-3.92000,
,,,6.40000,-2.6400,
,,,6.41000,-2.0000,
,,,6.42000,4.88000,
,,,6.43000,-2.88000,
,,,6.44000,10.1600,
,,,6.45000,-5.44000,
,,,6.46000,1.6000,
,,,6.47000,7.04000,
,,,6.48000,1.5200,
,,,6.49000,-5.76000,
,,,6.50000,10.1600,
,,,6.51000,10.1600,
,,,6.52000,6.56000,
,,,6.53000,-10.1600,
,,,6.54000,-10.1600,
,,,6.55000,-4.08000,
,,,6.56000,-10.1600,
,,,6.57000,-8.880000,
,,,6.58000,479.999989E-3,
,,,6.59000,-5.52000,
,,,6.60000,-3.68000,
,,,6.61000,-2.72000,
,,,6.62000,4.48000,
,,,6.63000,-3.20000,
,,,6.64000,-2.0800,
,,,6.65000,-1.7600,
,,,6.66000,5.20000,
,,,6.67000,9.760000,
,,,6.68000,3.04000,
,,,6.69000,-4.96000,
,,,6.70000,10.1600,
,,,6.71000,10.1600,
,,,6.72000,10.1600,
,,,6.73000,-10.1600,
,,,6.74000,10.1600,
,,,6.75000,-10.1600,
,,,6.76000,-6.64000,
,,,6.77000,-10.1600,
,,,6.78000,-6.00000,
,,,6.79000,-9.520000,
,,,6.80000,-6.24000,
,,,6.81000,-4.32000,
,,,6.82000,3.44000,
,,,6.83000,-3.76000,
,,,6.84000,-2.5600,
,,,6.85000,-2.0000,
,,,6.86000,4.72000,
,,,6.87000,-959.999979E-3,
,,,6.88000,7.840000,
,,,6.89000,-4.56000,
,,,6.90000,1.7600,
,,,6.91000,10.1600,
,,,6.92000,10.1600,
,,,6.93000,-10.1600,
,,,6.94000,479.999989E-3,
,,,6.95000,-9.280000,
,,,6.96000,-2.2400,
,,,6.97000,-10.1600,
,,,6.98000,-2.0000,
,,,6.99000,-6.80000,
,,,7.00000,-4.48000,
,,,7.01000,-3.12000,
,,,7.02000,4.08000,
,,,7.03000,-3.28000,
,,,7.04000,-2.2400,
,,,7.05000,-1.8400,
,,,7.06000,5.20000,
,,,7.07000,9.599999,
,,,7.08000,3.04000,
,,,7.09000,-10.1600,
,,,7.10000,10.1600,
,,,7.11000,10.1600,
,,,7.12000,10.1600,
,,,7.13000,-10.1600,
,,,7.14000,10.1600,
,,,7.15000,2.88000,
,,,7.16000,-10.1600,
,,,7.17000,-10.1600,
,,,7.18000,-9.280000,
,,,7.19000,-10.1600,
,,,7.20000,-9.280000,
,,,7.21000,-6.32000,
,,,7.22000,3.20000,
,,,7.23000,-5.12000,
,,,7.24000,-3.36000,
,,,7.25000,-2.5600,
,,,7.26000,5.84000,
,,,7.27000,-3.68000,
,,,7.28000,-2.5600,
,,,7.29000,-2.1600,
,,,7.30000,10.1600,
,,,7.31000,79.999998E-3,
,,,7.32000,10.1600,
,,,7.33000,-10.1600,
,,,7.34000,4.32000,
,,,7.35000,10.1600,
,,,7.36000,10.1600,
,,,7.37000,-10.1600,
,,,7.38000,-10.1600,
,,,7.390000,-6.72000,
,,,7.400000,-10.1600,
,,,7.410000,-10.1600,
,,,7.420000,-799.999952E-3,
,,,7.430000,-7.36000,
,,,7.440000,-4.80000,
,,,7.450000,-3.52000,
,,,7.460000,4.72000,
,,,7.470000,-3.92000,
,,,7.480000,-2.5600,
,,,7.490000,-2.0800,
,,,7.500000,5.52000,
,,,7.510000,-4.32000,
,,,7.520000,9.040000,
,,,7.530000,-6.32000,
,,,7.540000,10.1600,
,,,7.550000,10.1600,
,,,7.560000,10.1600,
,,,7.570000,-10.1600,
,,,7.580000,10.1600,
,,,7.590000,10.1600,
,,,7.600000,-9.920000,
,,,7.610000,-10.1600,
,,,7.620000,-10.1600,
,,,7.630000,-10.1600,
,,,7.640000,-10.1600,
,,,7.650000,-8.320000,
,,,7.660000,1.2000,
,,,7.670000,-5.52000,
,,,7.680000,-3.60000,
,,,7.690000,-2.72000,
,,,7.700000,4.80000,
,,,7.710000,-3.36000,
,,,7.720000,-1.2000,
,,,7.730000,-3.20000,
,,,7.740000,3.28000,
,,,7.750000,5.84000,
,,,7.760000,10.1600,
,,,7.770000,-10.1600,
,,,7.780000,10.1600,
,,,7.790000,-1.8400,
,,,7.800000,-6.24000,
,,,7.810000,-10.1600,
,,,7.820000,-5.52000,
,,,7.830000,-9.520000,
,,,7.840000,-6.16000,
,,,7.850000,-4.24000,
,,,7.860000,3.68000,
,,,7.870000,-3.92000,
,,,7.880000,-2.6400,
,,,7.890000,-2.0000,
,,,7.900000,5.04000,
,,,7.910000,-2.96000,
,,,7.920000,10.1600,
,,,7.930000,-7.520000,
,,,7.940000,10.1600,
,,,7.950000,10.1600,
,,,7.960000,10.1600,
,,,7.970000,-10.1600,
,,,7.980000,-3.60000,
,,,7.990000,-10.1600,
,,,8.000000,10.1600,
,,,8.010000,-10.1600,
,,,8.020000,10.1600,
,,,8.030000,-4.80000,
,,,8.040000,-959.999979E-3,
,,,8.050000,-10.1600,
,,,8.059999,-5.92000,
,,,8.070000,-9.440000,
,,,8.080000,-6.08000,
,,,8.090000,-4.24000,
,,,8.099999,3.44000,
,,,8.110000,-3.84000,
,,,8.120000,-2.5600,
,,,8.130000,-2.0000,
,,,8.139999,5.04000,
,,,8.150000,-2.96000,
,,,8.160000,-2.0000,
,,,8.170000,-399.99998E-3,
,,,8.179999,10.1600,
,,,8.190000,10.1600,
,,,8.200000,10.1600,
,,,8.210000,-10.1600,
,,,8.220000,10.1600,
,,,8.230000,5.36000,
,,,8.240000,3.12000,
,,,8.250000,-10.1600,
,,,8.260000,-9.920000,
,,,8.270000,-10.1600,
,,,8.280000,-9.040000,
,,,8.290000,-6.16000,
,,,8.300000,2.5600,
,,,8.309999,-4.80000,
,,,8.320000,-3.12000,
,,,8.330000,-2.4000,
,,,8.340000,5.04000,
,,,8.349999,-3.20000,
,,,8.360000,3.60000,
,,,8.370000,-3.12000,
,,,8.380000,3.04000,
,,,8.389999,10.1600,
,,,8.400000,10.1600,
,,,8.410000,-10.1600,
,,,8.420000,-1.6800,
,,,8.429999,10.1600,
,,,8.440000,10.1600,
,,,8.450000,-10.1600,
,,,8.460000,-10.1600,
,,,8.470000,-10.1600,
,,,8.480000,-1.2000,
,,,8.490000,-10.1600,
,,,8.500000,-2.5600,
,,,8.510000,-7.920000,
,,,8.520000,-5.28000,
,,,8.530000,-3.68000,
,,,8.540000,4.24000,
,,,8.550000,-3.92000,
,,,8.559999,-2.4800,
,,,8.570000,-2.0800,
,,,8.580000,5.44000,
,,,8.590000,639.999986E-3,
,,,8.599999,10.1600,
,,,8.610000,-5.52000,
,,,8.620000,10.1600,
,,,8.630000,10.1600,
,,,8.639999,10.1600,
,,,8.650000,-10.1600,
,,,8.660000,-10.1600,
,,,8.670000,-10.1600,
,,,8.679999,-639.999986E-3,
,,,8.690000,-10.1600,
,,,8.700000,-2.0800,
,,,8.710000,-7.520000,
,,,8.720000,-5.04000,
,,,8.730000,-3.52000,
,,,8.740000,4.24000,
,,,8.750000,-3.68000,
,,,8.760000,-2.4800,
,,,8.770000,-2.0000,
,,,8.780000,5.04000,
,,,8.790000,-3.04000,
,,,8.800000,1.7600,
,,,8.809999,-8.480000,
,,,8.820000,-1.1200,
,,,8.830000,10.1600,
,,,8.840000,10.1600,
,,,8.849999,-10.1600,
,,,8.860000,10.1600,
,,,8.870000,-10.1600,
,,,8.880000,-10.1600,
,,,8.889999,-10.1600,
,,,8.900000,-5.12000,
,,,8.910000,-10.1600,
,,,8.920000,-6.88000,
,,,8.929999,-4.72000,
,,,8.940000,3.04000,
,,,8.950000,-3.92000,
,,,8.960000,-2.6400,
,,,8.970000,-2.0000,
,,,8.980000,4.72000,
,,,8.990000,-2.88000,
,,,9.000000,-2.0000,
,,,9.010000,-1.6000,
,,,9.020000,4.96000,
,,,9.030000,10.1600,
,,,9.040000,3.20000,
,,,9.050000,-4.96000,
,,,9.059999,10.1600,
,,,9.070000,10.1600,
,,,9.080000,10.1600,
,,,9.090000,-10.1600,
,,,9.099999,-10.1600,
,,,9.110000,-10.1600,
,,,9.120000,6.88000,
,,,9.130000,-10.1600,
,,,9.139999,-3.12000,
,,,9.150000,-7.920000,
,,,9.160000,-5.12000,
,,,9.170000,-3.68000,
,,,9.179999,3.92000,
,,,9.190000,-3.60000,
,,,9.200000,-2.4800,
,,,9.210000,-1.8400,
,,,9.220000,5.12000,
,,,9.230000,4.64000,
,,,9.240000,10.1600,
,,,9.250000,-5.28000,
,,,9.260000,10.1600,
